{
  "translations": {
    "buttons": {
      "easyGame": "Easy",
      "hardGame": "Hard",
      "rules": "Rules",
      "close": "Close",
      "send": "Send",
      "hallOfFame": "Hall of Fame"
    },
    "boardGame": {
      "snackBar": {
        "gameOver": "Game over",
        "success": "Correct!",
        "error": "Error!"
      },
      "boardState": {
        "scoredTrue": "This board has been scored before!",
        "scoredFalse": "Nobody has scored this board yet!"
      },
      "dialog": {
        "win": {
          "title": "Congratulations!",
          "easyMessage": "Keep practicing in easy mode or try hard mode",
          "hardMessage": "Another game?",
          "timeMessage1": "You made it in ",
          "timeMessage2": "minutes",
          "ratingInput": "Your initials"
        },
        "lose": {
          "title": "You lost!",
          "easyMessage": "Keep practicing in easy mode or try hard mode",
          "hardMessage": "Try it again"
        }
      }
    },
    "rulesPage": {
      "title": "Rules",
      "firstParagraph": "The rules are simple. The board is formed by a grid of tiles, which must be filled in violet or marked with an X. To the left of each row the groups of tiles 'filled' appear for that row, for example a 6 indicates that in that row There are 6 violet tiles in a row. The groups of 'filled' tiles for that column appear on each column.",
      "secondParagraph": "Groups of filled boxes are at least separated by an X.",
      "thirdParagraph": "At the bottom of the board, you have a slider to choose if you want to check a box 'filled' (violet) or 'empty' (X).",
      "fourthParagraph": "You have 3 lives to fill the entire board, every time you fail you will lose a live."
    },
    "hallOfFame": {
      "title": "Hall of Fame",
      "detail": {
        "title": "Scores" 
      }
    }
  }
}